C:\Users\jroma\Documents\NetBeansProjects\mavenproject2\mavenproject3\mavenproject1\mavenproject1\Tarea3Desktop\src\main\java\modelo\Cliente.java
C:\Users\jroma\Documents\NetBeansProjects\mavenproject2\mavenproject3\mavenproject1\mavenproject1\Tarea3Desktop\src\main\java\vistas\Clientes.java
C:\Users\jroma\Documents\NetBeansProjects\mavenproject2\mavenproject3\mavenproject1\mavenproject1\Tarea3Desktop\src\main\java\configuracion\JPAUtil.java
C:\Users\jroma\Documents\NetBeansProjects\mavenproject2\mavenproject3\mavenproject1\mavenproject1\Tarea3Desktop\src\main\java\main.java
C:\Users\jroma\Documents\NetBeansProjects\mavenproject2\mavenproject3\mavenproject1\mavenproject1\Tarea3Desktop\src\main\java\Dao\DaoCliente.java
